Get Started • WorkInData
…
Here, data is a regular Arrow
Dataset, so you can use dplyr to interact with it, but
the wid_subset function can be used to filter more
efficiently.

For instance, we might look at working status among those with a
graduate degree in 2018 by age and sex:

data_small <- data |>
  wid_subset(year == 2018, education == "Graduate") |>
  dplyr::select(age, sex, work) |>
  dplyr::collect()

data_small
#> # A tibble: 217,271 × 3
#>      age sex   work 
#>    <int> <lgl> <lgl>
#>  1    35 TRUE  TRUE 
#>  2    26 FALSE TRUE 
#>  3    36 TRUE  TRUE 
#>  4    65 TRUE  TRUE 
#>  5    70 FALSE TRUE 
#>  6    56 TRUE  FALSE
#>  7    41 FALSE TRUE 
#>  8    41 TRUE  TRUE 
#>  9    64 FALSE TRUE 
#> 10    24 TRUE  TRUE 
#> # ℹ 217,261 more rows
…
