…
For instance, we might look at working status among those with a
graduate degree in 2018 by age and sex:

``` r
data_small <- data |>
  wid_subset(year == 2018, education == "Graduate") |>
  dplyr::select(age, sex, work) |>
  dplyr::collect()

data_small
#> # A tibble: 217,271 × 3
#>      age sex   work 
#>    <int> <lgl> <lgl>
#>  1    40 FALSE TRUE 
#>  2    40 FALSE FALSE
#>  3    59 FALSE TRUE 
#>  4    24 TRUE  FALSE
#>  5    55 TRUE  TRUE 
#>  6    40 TRUE  TRUE 
#>  7    42 FALSE TRUE 
#>  8    30 FALSE TRUE 
#>  9    51 FALSE TRUE 
#> 10    36 FALSE TRUE 
#> # ℹ 217,261 more rows
```
…
