Aggregate Dataset — wid_aggregate • WorkInData
…
    Examples

# aggregate a subset of the full dataset
db_dir <- "../../../gender_growth_gap"
if (dir.exists(db_dir)) {
  selection <- data.frame(
    country = c("IND", "IND"),
    year = c(2004, 2005),
    survey = c("NSS", "NSS")
  )
  wid_aggregate(db_dir, selection = selection)
}
#> cell cutoff removed 1 of 264 rows, which excludes 23 of 5348590 people.
#> # A tibble: 263 × 8
#> # Groups:   country, year, sex, main_activity [24]
#>    country  year sex    main_activity         variable level  count      weight
#>    <chr>   <int> <chr>  <chr>                 <chr>    <chr>  <int>       <dbl>
#>  1 IND      2004 Male   Agriculture           total    all    34942 23626406539
#>  2 IND      2004 Male   Industry              total    all    10992  7169138951
#>  3 IND      2004 Male   Out of Workforce      total    all    71458 44921362764
#>  4 IND      2004 Male   Services - Market     total    all    31819 17580381594
#>  5 IND      2004 Male   Services - Non-Market total    all     2090  1213388628
#>  6 IND      2004 Male   Unemployed            total    all     3358  1410530988
#>  7 IND      2004 Female Agriculture           total    all    14886 10872332572
#>  8 IND      2004 Female Industry              total    all     2969  2018753456
#>  9 IND      2004 Female Out of Workforce      total    all   118035 73812218107
#> 10 IND      2004 Female Services - Market     total    all     4839  2550226703
#> # ℹ 253 more rows
…
